Intro2r: CommSci @ USC - join two data frames
…
starwars

# A tibble: 87 × 14
   name        height  mass hair_…¹ skin_…² eye_c…³ birth…⁴ sex   gender homew…⁵
   <chr>        <int> <dbl> <chr>   <chr>   <chr>     <dbl> <chr> <chr>  <chr>  
 1 Luke Skywa…    172    77 blond   fair    blue       19   male  mascu… Tatooi…
 2 C-3PO          167    75 <NA>    gold    yellow    112   none  mascu… Tatooi…
 3 R2-D2           96    32 <NA>    white,… red        33   none  mascu… Naboo  
 4 Darth Vader    202   136 none    white   yellow     41.9 male  mascu… Tatooi…
 5 Leia Organa    150    49 brown   light   brown      19   fema… femin… Aldera…
 6 Owen Lars      178   120 brown,… light   blue       52   male  mascu… Tatooi…
 7 Beru White…    165    75 brown   light   blue       47   fema… femin… Tatooi…
 8 R5-D4           97    32 <NA>    white,… red        NA   none  mascu… Tatooi…
 9 Biggs Dark…    183    84 black   light   brown      24   male  mascu… Tatooi…
10 Obi-Wan Ke…    182    77 auburn… fair    blue-g…    57   male  mascu… Stewjon
# … with 77 more rows, 4 more variables: species <chr>, films <list>,
#   vehicles <list>, starships <list>, and abbreviated variable names
#   ¹​hair_color, ²​skin_color, ³​eye_color, ⁴​birth_year, ⁵​homeworld
…
# A tibble: 6 × 2
  name                 fav_rating
  <chr>                     <dbl>
1 C-3P0                       474
2 Emperor Palpatine           110
3 Obi Wan Kenobi              591
4 Padme Amidala               168
5 Princess Leia Organa        547
6 R2 D2                       562

anti_join(starwars, fav_ratings) %>% arrange(name)

Joining with `by = join_by(name)`

# A tibble: 79 × 14
   name        height  mass hair_…¹ skin_…² eye_c…³ birth…⁴ sex   gender homew…⁵
   <chr>        <int> <dbl> <chr>   <chr>   <chr>     <dbl> <chr> <chr>  <chr>  
 1 Ackbar         180    83 none    brown … orange       41 male  mascu… Mon Ca…
 2 Adi Gallia     184    50 none    dark    blue         NA fema… femin… Corusc…
 3 Arvel Cryn…     NA    NA brown   fair    brown        NA male  mascu… <NA>   
 4 Ayla Secura    178    55 none    blue    hazel        48 fema… femin… Ryloth 
 5 BB8             NA    NA none    none    black        NA none  mascu… <NA>   
 6 Bail Prest…    191    NA black   tan     brown        67 male  mascu… Aldera…
 7 Barriss Of…    166    50 black   yellow  blue         40 fema… femin… Mirial 
 8 Ben Quadin…    163    65 none    grey, … orange       NA male  mascu… Tund   
 9 Beru White…    165    75 brown   light   blue         47 fema… femin… Tatooi…
10 Bib Fortuna    180    NA none    pale    pink         NA male  mascu… Ryloth 
# … with 69 more rows, 4 more variables: species <chr>, films <list>,
#   vehicles <list>, starships <list>, and abbreviated variable names
#   ¹​hair_color, ²​skin_color, ³​eye_color, ⁴​birth_year, ⁵​homeworld
…
