Intro2r: CommSci @ USC - Regression
…
Data

data are from the moderndive package. Modern dive by Ismay and Kim.

evals_ch5 <- evals %>% 
  select(ID, score, bty_avg, age)

evals

# A tibble: 463 × 14
      ID prof_ID score   age bty_avg gender ethnicity    language rank   pic_o…¹
   <int>   <int> <dbl> <int>   <dbl> <fct>  <fct>        <fct>    <fct>  <fct>  
 1     1       1   4.7    36    5    female minority     english  tenur… not fo…
 2     2       1   4.1    36    5    female minority     english  tenur… not fo…
 3     3       1   3.9    36    5    female minority     english  tenur… not fo…
 4     4       1   4.8    36    5    female minority     english  tenur… not fo…
 5     5       2   4.6    59    3    male   not minority english  tenur… not fo…
 6     6       2   4.3    59    3    male   not minority english  tenur… not fo…
 7     7       2   2.8    59    3    male   not minority english  tenur… not fo…
 8     8       3   4.1    51    3.33 male   not minority english  tenur… not fo…
 9     9       3   3.4    51    3.33 male   not minority english  tenur… not fo…
10    10       4   4.5    40    3.17 female not minority english  tenur… not fo…
# … with 453 more rows, 4 more variables: pic_color <fct>, cls_did_eval <int>,
#   cls_students <int>, cls_level <fct>, and abbreviated variable name
#   ¹​pic_outfit

evals_ch5

# A tibble: 463 × 4
      ID score bty_avg   age
   <int> <dbl>   <dbl> <int>
 1     1   4.7    5       36
 2     2   4.1    5       36
 3     3   3.9    5       36
 4     4   4.8    5       36
 5     5   4.6    3       59
 6     6   4.3    3       59
 7     7   2.8    3       59
 8     8   4.1    3.33    51
 9     9   3.4    3.33    51
10    10   4.5    3.17    40
# … with 453 more rows
…
broom::glance(score_model)

# A tibble: 1 × 12
  r.squ…¹ adj.r…² sigma stati…³ p.value    df logLik   AIC   BIC devia…⁴ df.re…⁵
    <dbl>   <dbl> <dbl>   <dbl>   <dbl> <dbl>  <dbl> <dbl> <dbl>   <dbl>   <int>
1  0.0350  0.0329 0.535    16.7 5.08e-5     1  -366.  738.  751.    132.     461
# … with 1 more variable: nobs <int>, and abbreviated variable names
#   ¹​r.squared, ²​adj.r.squared, ³​statistic, ⁴​deviance, ⁵​df.residual

More model data

broom::augment(score_model)

# A tibble: 463 × 8
   score bty_avg .fitted   .resid    .hat .sigma      .cooksd .std.resid
   <dbl>   <dbl>   <dbl>    <dbl>   <dbl>  <dbl>        <dbl>      <dbl>
 1   4.7    5       4.21  0.486   0.00247  0.535 0.00103         0.911  
 2   4.1    5       4.21 -0.114   0.00247  0.535 0.0000560      -0.213  
 3   3.9    5       4.21 -0.314   0.00247  0.535 0.000427       -0.587  
 4   4.8    5       4.21  0.586   0.00247  0.535 0.00149         1.10   
 5   4.6    3       4.08  0.520   0.00403  0.535 0.00192         0.974  
 6   4.3    3       4.08  0.220   0.00403  0.535 0.000343        0.412  
 7   2.8    3       4.08 -1.28    0.00403  0.532 0.0116         -2.40   
 8   4.1    3.33    4.10 -0.00244 0.00325  0.535 0.0000000340   -0.00457
 9   3.4    3.33    4.10 -0.702   0.00325  0.534 0.00282        -1.32   
10   4.5    3.17    4.09  0.409   0.00361  0.535 0.00106         0.765  
# … with 453 more rows
…
